…
extract_random_effects(brm_1, ci_level = .8)
# A tibble: 36 x 7
   group_var effect    group   value    se lower_10 upper_90
   <chr>     <chr>     <chr>   <dbl> <dbl>    <dbl>    <dbl>
 1 Subject   Intercept 308     3.54   13.9  -14.1       21.2
 2 Subject   Intercept 309   -39.6    14.0  -57.6      -22.1
 3 Subject   Intercept 310   -38.0    14.4  -56.8      -19.9
 4 Subject   Intercept 330    23.2    14.0    5.63      41.3
 5 Subject   Intercept 331    21.7    13.9    3.94      39.7
 6 Subject   Intercept 332     9.29   13.1   -6.96      26.0
 7 Subject   Intercept 333    16.7    13.2    0.208     34.0
 8 Subject   Intercept 334    -6.70   13.9  -24.7       10.6
 9 Subject   Intercept 335    -0.682  14.1  -19.0       17.1
10 Subject   Intercept 337    35.2    14.1   17.2       53.5
# … with 26 more rows
```
…
extract_random_coefs(tmb_2)
# A tibble: 36 x 7
   group_var effect    group  coef    se lower_2.5 upper_97.5
   <chr>     <chr>     <fct> <dbl> <dbl>     <dbl>      <dbl>
 1 Subject   Intercept 308    254.  20.3      214.       294.
 2 Subject   Intercept 309    211.  20.5      171.       251.
 3 Subject   Intercept 310    213.  20.4      173.       253.
 4 Subject   Intercept 330    274.  20.6      234.       315.
 5 Subject   Intercept 331    273.  20.2      233.       313.
 6 Subject   Intercept 332    260.  19.5      222.       299.
 7 Subject   Intercept 333    268.  19.7      229.       307.
 8 Subject   Intercept 334    244.  19.5      206.       283.
 9 Subject   Intercept 335    250.  20.7      210.       291.
10 Subject   Intercept 337    286.  20.3      246.       326.
# … with 26 more rows
```
…
