Miscellaneous functions for mixed models • mixedup
…
gam_model = gam(
  Reaction ~  Days +
    s(Subject, bs = 're') +
    s(Days, Subject, bs = 're'),
  data = lme4::sleepstudy,
  method = 'REML'
)

Extract Output from a Mixed Model

library(mixedup)

extract_random_effects(tmb_model)
# A tibble: 36 x 7
   group_var effect    group  value    se lower_2.5 upper_97.5
   <chr>     <chr>     <fct>  <dbl> <dbl>     <dbl>      <dbl>
 1 Subject   Intercept 308     2.82  13.7    -23.9        29.6
 2 Subject   Intercept 309   -40.0   13.8    -67.2       -12.9
 3 Subject   Intercept 310   -38.4   13.7    -65.4       -11.5
 4 Subject   Intercept 330    22.8   13.9     -4.51       50.2
 5 Subject   Intercept 331    21.6   13.6     -5.11       48.2
 6 Subject   Intercept 332     8.82  12.9    -16.5        34.1
 7 Subject   Intercept 333    16.4   13.1     -9.23       42.1
 8 Subject   Intercept 334    -7.00  12.9    -32.3        18.3
 9 Subject   Intercept 335    -1.04  14.0    -28.5        26.4
10 Subject   Intercept 337    34.7   13.6      7.94       61.4
# … with 26 more rows

extract_fixed_effects(nlme_model)
# A tibble: 3 x 7
  term   value    se     z p_value lower_2.5 upper_97.5
  <chr>  <dbl> <dbl> <dbl>   <dbl>     <dbl>      <dbl>
1 Asym  101.   2.46   41.2       0     96.5      106.  
2 R0     -8.63 0.318 -27.1       0     -9.26      -7.99
3 lrc    -3.23 0.034 -94.4       0     -3.30      -3.16

extract_random_coefs(lmer_model)
# A tibble: 36 x 7
   group_var effect    group value    se lower_2.5 upper_97.5
   <chr>     <chr>     <fct> <dbl> <dbl>     <dbl>      <dbl>
 1 Subject   Intercept 308    254.  13.9      226.       281.
 2 Subject   Intercept 309    211.  13.9      184.       238.
 3 Subject   Intercept 310    212.  13.9      185.       240.
 4 Subject   Intercept 330    275.  13.9      248.       302.
 5 Subject   Intercept 331    274.  13.9      246.       301.
 6 Subject   Intercept 332    260.  13.9      233.       288.
 7 Subject   Intercept 333    268.  13.9      241.       295.
 8 Subject   Intercept 334    244.  13.9      217.       271.
 9 Subject   Intercept 335    251.  13.9      224.       278.
10 Subject   Intercept 337    286.  13.9      259.       313.
# … with 26 more rows
…
