Miscellaneous Functions • mixedup
…
extract_cor_structure(lme_corAR)
# A tibble: 1 x 1
    Phi
  <dbl>
1 0.662

Extract model data

Just a wrapper for model.frame.

extract_model_data(lmer_model)
# A tibble: 180 x 3
   Reaction  Days Subject
      <dbl> <dbl> <fct>  
 1     250.     0 308    
 2     259.     1 308    
 3     251.     2 308    
 4     321.     3 308    
 5     357.     4 308    
 6     415.     5 308    
 7     382.     6 308    
 8     290.     7 308    
 9     431.     8 308    
10     466.     9 308    
# … with 170 more rows
…
