Extract random effects — extract_random_effects • mixedup
…
    Examples

library(lme4)
library(mixedup)

lmer_model <- lmer(Reaction ~ Days + (1 + Days | Subject), data = sleepstudy)
extract_random_effects(lmer_model)
#> # A tibble: 36 × 7
#>    group_var effect    group   value    se lower_2.5 upper_97.5
#>    <chr>     <chr>     <fct>   <dbl> <dbl>     <dbl>      <dbl>
#>  1 Subject   Intercept 308     2.26   12.1   -21.4         25.9
#>  2 Subject   Intercept 309   -40.4    12.1   -64.1        -16.7
#>  3 Subject   Intercept 310   -39.0    12.1   -62.6        -15.3
#>  4 Subject   Intercept 330    23.7    12.1     0.032       47.3
#>  5 Subject   Intercept 331    22.3    12.1    -1.40        45.9
#>  6 Subject   Intercept 332     9.04   12.1   -14.6         32.7
#>  7 Subject   Intercept 333    16.8    12.1    -6.82        40.5
#>  8 Subject   Intercept 334    -7.23   12.1   -30.9         16.4
#>  9 Subject   Intercept 335    -0.334  12.1   -24.0         23.3
#> 10 Subject   Intercept 337    34.9    12.1    11.2         58.5
#> # … with 26 more rows
…
